{
  "getCountCheckInOutChildren" : {
    "transaction" : "getCountCheckInOutChildren",
    "sampleCount" : 548,
    "errorCount" : 0,
    "errorPct" : 0.0,
    "meanResTime" : 2735.5894160583935,
    "medianResTime" : 2234.5,
    "minResTime" : 345.0,
    "maxResTime" : 8561.0,
    "pct1ResTime" : 5592.600000000001,
    "pct2ResTime" : 6541.199999999995,
    "pct3ResTime" : 7794.5199999999995,
    "throughput" : 1.819902694983644,
    "receivedKBytesPerSec" : 1.1498799254437673,
    "sentKBytesPerSec" : 2.2517741352971457
  },
  "getLatestMobileVersion" : {
    "transaction" : "getLatestMobileVersion",
    "sampleCount" : 21859,
    "errorCount" : 0,
    "errorPct" : 0.0,
    "meanResTime" : 68.21940619424521,
    "medianResTime" : 49.0,
    "minResTime" : 10.0,
    "maxResTime" : 1366.0,
    "pct1ResTime" : 127.90000000000146,
    "pct2ResTime" : 168.0,
    "pct3ResTime" : 303.9900000000016,
    "throughput" : 72.88884442888343,
    "receivedKBytesPerSec" : 48.758650814243325,
    "sentKBytesPerSec" : 53.74128666387403
  },
  "findAllConfigByCategory" : {
    "transaction" : "findAllConfigByCategory",
    "sampleCount" : 1087,
    "errorCount" : 0,
    "errorPct" : 0.0,
    "meanResTime" : 1378.3587856485717,
    "medianResTime" : 598.0,
    "minResTime" : 43.0,
    "maxResTime" : 8389.0,
    "pct1ResTime" : 3716.0000000000005,
    "pct2ResTime" : 4906.5999999999985,
    "pct3ResTime" : 6805.799999999993,
    "throughput" : 3.6130481894872593,
    "receivedKBytesPerSec" : 4.085849417408444,
    "sentKBytesPerSec" : 4.692728605486383
  },
  "getNotifications" : {
    "transaction" : "getNotifications",
    "sampleCount" : 358,
    "errorCount" : 0,
    "errorPct" : 0.0,
    "meanResTime" : 4193.094972067036,
    "medianResTime" : 3415.0,
    "minResTime" : 92.0,
    "maxResTime" : 9652.0,
    "pct1ResTime" : 8561.2,
    "pct2ResTime" : 8865.15,
    "pct3ResTime" : 9585.0,
    "throughput" : 1.1891317345379657,
    "receivedKBytesPerSec" : 9.88581880480635,
    "sentKBytesPerSec" : 1.3226768023815851
  },
  "getHomefeed" : {
    "transaction" : "getHomefeed",
    "sampleCount" : 216,
    "errorCount" : 0,
    "errorPct" : 0.0,
    "meanResTime" : 6948.851851851852,
    "medianResTime" : 7632.5,
    "minResTime" : 1518.0,
    "maxResTime" : 13946.0,
    "pct1ResTime" : 9314.5,
    "pct2ResTime" : 9849.55,
    "pct3ResTime" : 11641.509999999993,
    "throughput" : 0.7175483763806993,
    "receivedKBytesPerSec" : 8.743018644630846,
    "sentKBytesPerSec" : 3.590544805248734
  },
  "Total" : {
    "transaction" : "Total",
    "sampleCount" : 26595,
    "errorCount" : 0,
    "errorPct" : 0.0,
    "meanResTime" : 563.6199285580028,
    "medianResTime" : 60.0,
    "minResTime" : 10.0,
    "maxResTime" : 13946.0,
    "pct1ResTime" : 1299.800000000003,
    "pct2ResTime" : 3946.9500000000007,
    "pct3ResTime" : 8567.970000000005,
    "throughput" : 88.30824708378574,
    "receivedKBytesPerSec" : 187.6177150158055,
    "sentKBytesPerSec" : 81.5484115535378
  },
  "me" : {
    "transaction" : "me",
    "sampleCount" : 579,
    "errorCount" : 0,
    "errorPct" : 0.0,
    "meanResTime" : 2590.0587219343693,
    "medianResTime" : 1716.0,
    "minResTime" : 69.0,
    "maxResTime" : 9545.0,
    "pct1ResTime" : 6588.0,
    "pct2ResTime" : 7605.0,
    "pct3ResTime" : 8368.800000000001,
    "throughput" : 1.924342433246256,
    "receivedKBytesPerSec" : 2.5363517196940992,
    "sentKBytesPerSec" : 6.098135933480567
  },
  "findAllChildrenByParent" : {
    "transaction" : "findAllChildrenByParent",
    "sampleCount" : 552,
    "errorCount" : 0,
    "errorPct" : 0.0,
    "meanResTime" : 2716.3405797101404,
    "medianResTime" : 1646.5,
    "minResTime" : 56.0,
    "maxResTime" : 9559.0,
    "pct1ResTime" : 7578.3,
    "pct2ResTime" : 8175.45,
    "pct3ResTime" : 8948.7,
    "throughput" : 1.8337530147298204,
    "receivedKBytesPerSec" : 2.059390592714154,
    "sentKBytesPerSec" : 2.92970696493944
  },
  "getAllClassInfo" : {
    "transaction" : "getAllClassInfo",
    "sampleCount" : 255,
    "errorCount" : 0,
    "errorPct" : 0.0,
    "meanResTime" : 5885.290196078431,
    "medianResTime" : 7398.0,
    "minResTime" : 114.0,
    "maxResTime" : 12781.0,
    "pct1ResTime" : 8969.2,
    "pct2ResTime" : 9742.4,
    "pct3ResTime" : 11634.16,
    "throughput" : 0.8469622288060157,
    "receivedKBytesPerSec" : 2.434293090656512,
    "sentKBytesPerSec" : 2.1744762690732573
  },
  "findAllSchoolConfig" : {
    "transaction" : "findAllSchoolConfig",
    "sampleCount" : 969,
    "errorCount" : 0,
    "errorPct" : 0.0,
    "meanResTime" : 1545.388028895769,
    "medianResTime" : 743.0,
    "minResTime" : 36.0,
    "maxResTime" : 8045.0,
    "pct1ResTime" : 4131.0,
    "pct2ResTime" : 5221.0,
    "pct3ResTime" : 7051.199999999992,
    "throughput" : 3.223960447428484,
    "receivedKBytesPerSec" : 70.31004366403603,
    "sentKBytesPerSec" : 2.3644475547058508
  },
  "getChildCheckInCheckOut" : {
    "transaction" : "getChildCheckInCheckOut",
    "sampleCount" : 172,
    "errorCount" : 0,
    "errorPct" : 0.0,
    "meanResTime" : 8729.715116279067,
    "medianResTime" : 8728.5,
    "minResTime" : 3767.0,
    "maxResTime" : 13539.0,
    "pct1ResTime" : 10020.0,
    "pct2ResTime" : 10472.499999999998,
    "pct3ResTime" : 13318.540000000003,
    "throughput" : 0.5711287762569814,
    "receivedKBytesPerSec" : 38.01520142665976,
    "sentKBytesPerSec" : 2.6280847594950156
  }
}